Modeling Global Life Expectancy vs Education using Least Squares Regression | Alice Tivarovsky
…
We want to look closely at the distances between the datapoints and the line. Unfortunately, lm() doesn’t give us a dataframe output we can work with. This is where the broom package comes in handy. Specifically, the augment() function within broom allows us to build a dataframe with all kinds of useful information:

model_1_df = 
  broom::augment(model_1)
model_1_df

## # A tibble: 173 x 9
##    life_expectancy schooling .fitted .se.fit .resid    .hat .sigma   .cooksd .std.resid
##              <dbl>     <dbl>   <dbl>   <dbl>  <dbl>   <dbl>  <dbl>     <dbl>      <dbl>
##  1            59.5       9.8    64.3   0.542 -4.79  0.0117    5.00 0.00551      -0.964 
##  2            76.9      14.2    74.4   0.427  2.52  0.00729   5.01 0.000936      0.505 
##  3            75.1      14.4    74.8   0.440  0.257 0.00773   5.02 0.0000104     0.0516
##  4            56        10.3    65.4   0.497 -9.44  0.00987   4.96 0.0179       -1.90  
##  5            75.9      13.8    73.5   0.406  2.43  0.00658   5.01 0.000789      0.488 
##  6            75.9      17.2    81.3   0.702 -5.36  0.0197    5.00 0.0118       -1.08  
##  7            74.4      12.7    70.9   0.380  3.46  0.00578   5.01 0.00139       0.693 
##  8            82.3      20.1    87.9   1.04  -5.61  0.0436    5.00 0.0300       -1.15  
##  9            88        15.7    77.8   0.547 10.2   0.0119    4.96 0.0253        2.05  
## 10            71.9      11.8    68.9   0.399  3.02  0.00637   5.01 0.00118       0.605 
## # … with 163 more rows
…
